<?xml version="1.0" encoding="utf-8"?>
<!-- Generator: Adobe Illustrator 23.0.1, SVG Export Plug-In . SVG Version: 6.00 Build 0)  -->
<svg version="1.1" id="Calque_1" xmlns="http://www.w3.org/2000/svg" xmlns:xlink="http://www.w3.org/1999/xlink" x="0px" y="0px"
	 viewBox="0 0 245.5 66.4" enable-background="new 0 0 245.5 66.4" xml:space="preserve">
<g>
	<g id="Calque_1-2">
		<path fill="#388698" d="M212.6,31.8c0-2.1,0-4.3,0-6.4c0-0.3-0.1-0.4-0.4-0.4c-0.5,0-1,0-1.5,0c-0.4,0-0.5,0.1-0.5,0.5
			c0,3.9,0,7.9,0,11.8c0,0.3-0.1,0.5-0.3,0.7c-8.3,6.4-20.3,4.8-26.6-3.5c-3.5-4.6-4.8-10.5-3.4-16.1C182.4,8.2,192.7,2,202.8,4.5
			c0.3,0.1,0.5,0.1,0.8,0.2c2.6,0.7,5.1,2,7.1,3.8c0.3,0.2,0.4,0.2,0.6,0c0.4-0.4,0.7-0.7,1.1-1c0.3-0.2,0.3-0.4,0-0.6
			c-5.2-4.7-12.5-6.5-19.4-4.7c-11.4,2.8-18.4,14.3-15.6,25.7c0.2,0.8,0.4,1.6,0.7,2.3c2.9,8.3,10.7,13.9,19.5,14.1
			c5.3,0.2,10.6-1.7,14.5-5.3c0.3-0.2,0.4-0.5,0.4-0.9C212.6,36,212.6,33.9,212.6,31.8z"/>
		<path fill="#388698" d="M55.7,43.8c0-0.2-0.1-0.3-0.2-0.5c-5.2-8-10.4-16-15.6-24c-0.2-0.2-0.2-0.6,0-0.9c4-5.3,8-10.6,11.9-15.9
			C51.8,2.4,52,2.3,51.9,2c-0.8,0-1.6,0-2.4,0c-0.3,0-0.6,0.1-0.8,0.4c-4.2,5.6-8.4,11.3-12.6,16.9c-0.1,0.1-0.1,0.3-0.3,0.3v-0.5
			c0-5.5,0-11,0-16.5c0-0.1,0-0.2,0-0.3c0-0.3-0.1-0.3-0.3-0.3c-0.5,0-1,0-1.4,0c-0.5,0-0.6,0-0.6,0.6c0,13.5,0,27,0,40.5
			c0,0.1,0,0.2,0,0.3c0,0.3,0.1,0.3,0.3,0.3c0.5,0,1,0,1.5,0c0.4,0,0.5-0.1,0.5-0.5c0-6.3,0-12.6,0-18.9c0-0.5,0.2-1,0.5-1.4
			c0.6-0.7,1.2-1.5,1.8-2.2l0.3,0.4l8.4,13.1l5.9,9.2c0.1,0.2,0.1,0.3,0.4,0.3L55.7,43.8z"/>
		<path fill="#388698" d="M14.2,44.3c0.7,0,1.3,0,2-0.1c0.4-0.1,0.8-0.1,1.2-0.2c4.9-1.2,8.5-5.3,9.2-10.3c0.5-3.4-0.5-6.9-2.7-9.6
			c-2.3-2.6-5.2-4.6-8.5-5.7c-2-0.7-3.8-1.8-5.3-3.2c-1.8-1.6-2.6-4-2-6.4c0.9-3.5,4.4-5.6,7.9-4.8c1.6,0.4,3.1,1.4,4,2.9
			c0.3,0.4,0.3,1.1,0.7,1.1s0.9-0.3,1.4-0.5c0.7-0.3,0.7-0.3,0.4-1c-1.7-3.6-5.7-5.6-9.6-4.8c-3.3,0.5-5.9,2.8-6.8,6
			c-1.1,3.1-0.3,6.5,2,8.8c1.9,1.8,4.1,3.2,6.6,4c2.1,0.8,4.1,1.9,5.9,3.4c4.5,3.3,5.4,9.6,2,14.1s-9.6,5.4-14.1,2
			c-2.1-1.6-3.5-4-3.9-6.6c0-0.3-0.2-0.3-0.4-0.2c-0.4,0.2-0.9,0.3-1.3,0.5c-0.6,0.2-0.6,0.2-0.5,0.9C3.4,40.2,8.4,44.2,14.2,44.3z"
			/>
		<path fill="#388698" d="M231,44.3c0.9,0,1.8-0.1,2.7-0.3c5.1-1.1,8.9-5.3,9.6-10.5c0.5-3.4-0.5-6.9-2.8-9.5
			c-2.3-2.6-5.2-4.5-8.5-5.6c-2-0.7-3.8-1.8-5.4-3.2c-1.8-1.6-2.6-4-1.9-6.3c0.6-2.7,2.9-4.7,5.7-4.9c2.8-0.3,5.4,1.3,6.6,3.8
			c0.1,0.3,0.2,0.4,0.6,0.2c0.4-0.2,0.8-0.4,1.3-0.5c0.4-0.1,0.5-0.3,0.3-0.7c0-0.1-0.1-0.2-0.1-0.2c-1.7-3.6-5.7-5.6-9.6-4.8
			c-3.2,0.5-5.9,2.8-6.8,6c-1.1,3.1-0.3,6.6,2.1,8.8c1.8,1.8,4.1,3.2,6.6,4c2.1,0.8,4.1,1.9,5.9,3.3c2.9,2.2,4.4,5.8,3.9,9.4
			c-0.8,5.5-5.9,9.4-11.5,8.6c-0.1,0-0.2,0-0.2,0c-4.2-0.8-7.4-4.2-8.1-8.4c0-0.3-0.1-0.3-0.4-0.2c-0.4,0.2-0.9,0.3-1.3,0.5
			c-0.7,0.2-0.7,0.2-0.5,0.9C220.2,40.2,225.2,44.3,231,44.3z"/>
		<path fill="#388698" d="M76.2,22.9c0,6.8,0,13.5,0,20.3c0,0.4,0.1,0.5,0.5,0.5c5.8,0,11.7,0,17.5,0h0.2c0.2,0,0.3-0.1,0.3-0.3
			c0-0.5,0-1,0-1.6s-0.1-0.5-0.5-0.5c-5,0-10,0-15,0c-0.7,0-0.6,0.1-0.6-0.6c0-12.6,0-25.2,0-37.9c0-0.1,0-0.2,0-0.3
			c0.1-0.4-0.1-0.6-0.5-0.5c-0.4,0-0.9,0-1.3,0c-0.4,0-0.6,0.1-0.6,0.5C76.2,9.4,76.2,16.2,76.2,22.9z"/>
		<path fill="#388698" d="M102.5,22.9c0,6.8,0,13.6,0,20.4c0,0.4,0.1,0.5,0.5,0.5c5.8,0,11.7,0,17.5,0h0.2c0.2,0,0.3-0.1,0.3-0.3
			c0-0.5,0-1,0-1.6s-0.1-0.5-0.5-0.5c-5,0-10.1,0-15.1,0c-0.7,0-0.6,0.1-0.6-0.6c0-12.7,0-25.3,0-38c0-0.1,0-0.2,0-0.4
			c0-0.3-0.1-0.4-0.4-0.3c-0.5,0-0.9,0-1.4,0c-0.7,0-0.6-0.1-0.6,0.6C102.5,9.4,102.5,16.1,102.5,22.9z"/>
		<path fill="#388698" d="M66.3,22.9c0-6.8,0-13.5,0-20.3c0-0.1,0-0.2,0-0.3c0-0.2-0.1-0.3-0.3-0.3c-0.5,0-1,0-1.5,0
			c-0.7,0-0.6-0.1-0.6,0.6c0,13.5,0,27,0,40.5c0,0,0,0.1,0,0.1c0,0.3,0,0.5,0.4,0.5c0.5,0,0.9,0,1.4,0c0.4,0,0.5-0.1,0.5-0.5
			C66.3,36.5,66.3,29.7,66.3,22.9z"/>
		<path fill="#388698" d="M20.4,7.9"/>
		
			<linearGradient id="Path_31861_1_" gradientUnits="userSpaceOnUse" x1="-7796.6431" y1="888.9435" x2="-7796.833" y2="888.9435" gradientTransform="matrix(64.35 -2.000000e-02 3.000000e-02 101.59 501829.0625 -90434.5)">
			<stop  offset="0" style="stop-color:#1A437E"/>
			<stop  offset="1" style="stop-color:#6BBFA5"/>
		</linearGradient>
		<path id="Path_31861" fill="url(#Path_31861_1_)" d="M140.9,19.5c0.1,1.2,2.7,10.6,12.1,8.3c0,0.7,0.3,11.3,0.1,11.1
			C145.2,35,141.1,28.6,140.9,19.5z"/>
		
			<linearGradient id="Path_31862_1_" gradientUnits="userSpaceOnUse" x1="-7917.4131" y1="884.3893" x2="-7917.5132" y2="884.2493" gradientTransform="matrix(139.33 -4.000000e-02 4.000000e-02 150.55 1103261.125 -133394.9844)">
			<stop  offset="0" style="stop-color:#1A437E"/>
			<stop  offset="1" style="stop-color:#6BBFA5"/>
		</linearGradient>
		<path id="Path_31862" fill="url(#Path_31862_1_)" d="M153,44.2c-10.1,0.8-20.9-4.3-25.8-16.8c9.2-9.6,14.1-10.9,14.1-11
			c-0.6,9.4,2.2,17.5,11.6,22.3C152.9,38.7,153,44.2,153,44.2z"/>
		
			<linearGradient id="Path_31860_1_" gradientUnits="userSpaceOnUse" x1="-7922.1025" y1="886.0484" x2="-7922.1724" y2="885.8584" gradientTransform="matrix(146.37 -4.000000e-02 4.000000e-02 134.06 1159664.125 -119072.5781)">
			<stop  offset="0" style="stop-color:#1A437E"/>
			<stop  offset="1" style="stop-color:#6BBFA5"/>
		</linearGradient>
		<path id="Path_31860" fill="url(#Path_31860_1_)" d="M132.1,2.5c6.6,1.1,10.5,3.2,13.5,6.1c6.3,6,7,15.2,7,15.2s-1.9-5.8-5.4-7.5
			c-5.4-2.6-12.7,3.6-20.1,11c-0.4-1.3-1.8-17.5-1.8-20.9C125.4,6.2,132.1,2.5,132.1,2.5z"/>
		
			<linearGradient id="Path_31863_1_" gradientUnits="userSpaceOnUse" x1="-7949.3643" y1="880.8273" x2="-7949.2241" y2="880.9973" gradientTransform="matrix(200.36 -5.000000e-02 6.000000e-02 238.56 1592831.5 -210512.7812)">
			<stop  offset="0" style="stop-color:#1A437E"/>
			<stop  offset="1" style="stop-color:#6BBFA5"/>
		</linearGradient>
		<path id="Path_31863" fill="url(#Path_31863_1_)" d="M153,44.2c-0.9-11.7,4.6-37.6-20.9-41.6c2.2-1,4.5-1.8,6.9-2.4
			c25.8-2.4,31.4,19.6,30,37.6C169,37.8,165.5,40.8,153,44.2z"/>
	</g>
	<g enable-background="new    ">
		<path fill="#388698" d="M1.9,54.7h2.5l1.9,11.5H4.4L4.1,64v0H2l-0.3,2.3H0L1.9,54.7z M3.9,62.5L3,56.8h0l-0.8,5.7H3.9z"/>
		<path fill="#388698" d="M14.5,54.7h1.8v11.5h-1.8V54.7z"/>
		<path fill="#388698" d="M24.8,59.7h3.6v1.6h-3.6V59.7z"/>
		<path fill="#388698" d="M36.9,54.7h2.7c0.9,0,1.6,0.2,2,0.7c0.5,0.5,0.7,1.2,0.7,2.1v1.1c0,0.9-0.2,1.6-0.7,2.1
			c-0.5,0.5-1.1,0.7-2,0.7h-0.9v4.7h-1.8V54.7z M39.6,59.9c0.3,0,0.5-0.1,0.7-0.2c0.1-0.2,0.2-0.4,0.2-0.8v-1.4
			c0-0.4-0.1-0.7-0.2-0.8c-0.1-0.2-0.4-0.2-0.7-0.2h-0.9v3.5H39.6z"/>
		<path fill="#388698" d="M51.3,65.7c-0.5-0.5-0.7-1.2-0.7-2.1v-6.1c0-0.9,0.2-1.6,0.7-2.1c0.5-0.5,1.2-0.8,2-0.8
			c0.9,0,1.6,0.3,2,0.8c0.5,0.5,0.7,1.2,0.7,2.1v6.1c0,0.9-0.2,1.6-0.7,2.1c-0.5,0.5-1.2,0.8-2,0.8C52.4,66.4,51.7,66.2,51.3,65.7z
			 M54.3,63.7v-6.3c0-0.8-0.3-1.1-0.9-1.1s-0.9,0.4-0.9,1.1v6.3c0,0.8,0.3,1.1,0.9,1.1S54.3,64.4,54.3,63.7z"/>
		<path fill="#388698" d="M64.3,54.7H66l0.8,8.9h0l0.9-8.9h2l0.9,8.9h0l0.8-8.9h1.6l-1.2,11.5h-2.3l-0.8-7.8h0l-0.8,7.8h-2.4
			L64.3,54.7z"/>
		<path fill="#388698" d="M81.3,54.7h4.9v1.6h-3.1v3h2.5v1.6h-2.5v3.5h3.1v1.6h-4.9V54.7z"/>
		<path fill="#388698" d="M94.7,54.7h2.7c0.9,0,1.6,0.2,2,0.7c0.4,0.4,0.6,1.1,0.6,2v0.7c0,1.2-0.4,2-1.2,2.3v0
			c0.4,0.1,0.7,0.4,0.9,0.8c0.2,0.4,0.3,1,0.3,1.6v2c0,0.3,0,0.6,0,0.8c0,0.2,0.1,0.4,0.2,0.6h-1.8c-0.1-0.2-0.1-0.4-0.1-0.5
			c0-0.2,0-0.5,0-0.9v-2.1c0-0.5-0.1-0.9-0.3-1.1c-0.2-0.2-0.5-0.3-0.9-0.3h-0.6v4.9h-1.8V54.7z M97.1,59.7c0.4,0,0.6-0.1,0.8-0.3
			s0.3-0.5,0.3-0.9v-0.9c0-0.4-0.1-0.7-0.2-0.9c-0.1-0.2-0.4-0.3-0.7-0.3h-0.8v3.3H97.1z"/>
		<path fill="#388698" d="M108.7,54.7h4.9v1.6h-3.1v3h2.5v1.6h-2.5v3.5h3.1v1.6h-4.9V54.7z"/>
		<path fill="#388698" d="M122.1,54.7h2.8c0.9,0,1.6,0.2,2,0.7c0.4,0.5,0.7,1.2,0.7,2.1v5.8c0,0.9-0.2,1.6-0.7,2.1
			c-0.5,0.5-1.1,0.7-2,0.7h-2.8V54.7z M124.8,64.6c0.3,0,0.5-0.1,0.7-0.3s0.2-0.5,0.2-0.9v-6c0-0.4-0.1-0.7-0.2-0.9
			s-0.4-0.3-0.7-0.3h-0.9v8.2H124.8z"/>
		<path fill="#388698" d="M146.3,54.7h1.8v9.9h3v1.6h-4.8V54.7z"/>
		<path fill="#388698" d="M159.3,54.7h4.9v1.6h-3.1v3h2.5v1.6h-2.5v3.5h3.1v1.6h-4.9V54.7z"/>
		<path fill="#388698" d="M174.1,54.7h2.5l1.9,11.5h-1.8l-0.3-2.3v0h-2.1l-0.3,2.3h-1.7L174.1,54.7z M176.1,62.5l-0.8-5.7h0
			l-0.8,5.7H176.1z"/>
		<path fill="#388698" d="M186.7,54.7h2.7c0.9,0,1.6,0.2,2,0.7c0.4,0.4,0.6,1.1,0.6,2v0.7c0,1.2-0.4,2-1.2,2.3v0
			c0.4,0.1,0.7,0.4,0.9,0.8c0.2,0.4,0.3,1,0.3,1.6v2c0,0.3,0,0.6,0,0.8c0,0.2,0.1,0.4,0.2,0.6h-1.8c-0.1-0.2-0.1-0.4-0.1-0.5
			c0-0.2,0-0.5,0-0.9v-2.1c0-0.5-0.1-0.9-0.3-1.1c-0.2-0.2-0.5-0.3-0.9-0.3h-0.6v4.9h-1.8V54.7z M189.2,59.7c0.4,0,0.6-0.1,0.8-0.3
			c0.2-0.2,0.3-0.5,0.3-0.9v-0.9c0-0.4-0.1-0.7-0.2-0.9c-0.1-0.2-0.4-0.3-0.7-0.3h-0.8v3.3H189.2z"/>
		<path fill="#388698" d="M200.8,54.7h2.3l1.8,6.9h0v-6.9h1.6v11.5h-1.9l-2.2-8.4h0v8.4h-1.6V54.7z"/>
		<path fill="#388698" d="M215.2,54.7h1.8v11.5h-1.8V54.7z"/>
		<path fill="#388698" d="M225.8,54.7h2.3l1.8,6.9h0v-6.9h1.6v11.5h-1.9l-2.2-8.4h0v8.4h-1.6V54.7z"/>
		<path fill="#388698" d="M240.8,65.7c-0.5-0.5-0.7-1.2-0.7-2.1v-6.1c0-0.9,0.2-1.6,0.7-2.1c0.5-0.5,1.1-0.7,2-0.7
			c0.9,0,1.5,0.2,2,0.7c0.5,0.5,0.7,1.2,0.7,2.1v1h-1.7v-1.1c0-0.8-0.3-1.1-0.9-1.1s-0.9,0.4-0.9,1.1v6.3c0,0.7,0.3,1.1,0.9,1.1
			s0.9-0.4,0.9-1.1v-2.3h-0.9v-1.6h2.6v3.8c0,0.9-0.2,1.7-0.7,2.1c-0.5,0.5-1.1,0.8-2,0.8C241.9,66.4,241.3,66.2,240.8,65.7z"/>
	</g>
</g>
</svg>
